Metrics • pacta.loanbook
…
library(pacta.loanbook)
library(dplyr)  # for `%>%`

Match the loanbook to asset level data.

loanbook <- loanbook_demo
abcd <- abcd_demo

matched <- match_name(loanbook = loanbook, abcd = abcd) %>%
  # WARNING: Remember to validate the output of match_name() before prioritize()
  prioritize()

matched
#> # A tibble: 177 × 22
#>    id_loan id_direct_loantaker name_direct_loantaker              id_ultimate_parent name_ultimate_parent             loan_size_outstanding loan_size_outstanding_currency loan_size_credit_limit loan_size_credit_limit_currency sector_classification_system sector_classification_direc…¹ lei_direct_loantaker isin_direct_loantaker id_2dii level sector sector_abcd name  name_abcd score source borderline
#>    <chr>   <chr>               <chr>                              <chr>              <chr>                                            <dbl> <chr>                                           <dbl> <chr>                           <chr>                        <chr>                         <chr>                <chr>                 <chr>   <chr> <chr>  <chr>       <chr> <chr>     <dbl> <chr>  <lgl>     
#>  1 L6      C304                Kassulke-Kassulke                  UP83               Farrell, Farrell and Farrell                    185721 EUR                                          18570711 EUR                             NACE                         D35.11                        108200TUBGG1DR0QR635 NA                    DL129   dire… power  power       Kass… Kassulke…     1 loanb… FALSE     
#>  2 L13     C297                Ladeck                             UP69               Kuhlman-Kuhlman                                 200569 EUR                                          18718839 EUR                             NACE                         D35.11                        948400P8YHB5DZHF3869 NA                    DL144   dire… power  power       Lade… Ladeck        1 loanb… FALSE     
#>  3 L20     C287                Weinhold                           UP35               Heinz                                           308217 EUR                                          19792767 EUR                             NACE                         D35.11                        NA                   NA                    DL270   dire… power  power       Wein… Weinhold      1 loanb… FALSE     
#>  4 L21     C286                Gallo Group                        UP63               Giordano Group                                  226553 EUR                                          18978063 EUR                             NACE                         D35.11                        961100AOJ8SCT439AL00 NA                    DL86    dire… power  power       Gall… Gallo Gr…     1 loanb… FALSE     
#>  5 L22     C285                Austermuhle GmbH                   UP187              Hickle-Hickle                                   196857 EUR                                          18681807 EUR                             NACE                         D35.11                        NA                   NA                    DL5     dire… power  power       Aust… Austermu…     1 loanb… FALSE     
#>  6 L24     C282                Ferraro-Ferraro Group              UP209              NA                                              309145 EUR                                          19802025 EUR                             NACE                         D35.11                        NA                   NA                    DL80    dire… power  power       Ferr… Ferraro-…     1 loanb… FALSE     
#>  7 L25     C281                Lockman, Lockman and Lockman       UP296              Butte                                           266457 EUR                                          19376157 EUR                             NACE                         D35.11                        6700006IJUUQG37Y4004 NA                    DL150   dire… power  power       Lock… Lockman,…     1 loanb… FALSE     
#>  8 L26     C280                Ankunding, Ankunding and Ankunding UP67               De luca, De luca e De luca Group                199641 EUR                                                 0 EUR                             NACE                         D35.11                        NA                   NA                    DL3     dire… power  power       Anku… Ankundin…     1 loanb… FALSE     
#>  9 L27     C278                Donati-Donati Group                UP45               Christoph GmbH                                  197785 EUR                                                 0 EUR                             NACE                         D35.11                        463600EXRQBFGLX57N94 NA                    DL65    dire… power  power       Dona… Donati-D…     1 loanb… FALSE     
#> 10 L28     C276                Ferraro, Ferraro e Ferraro SPA     UP195              Franke Franke AG & Co. KG                       315641 EUR                                          -5000000 EUR                             NACE                         D35.11                        NA                   NA                    DL79    dire… power  power       Ferr… Ferraro,…     1 loanb… FALSE     
#> # ℹ 167 more rows
#> # ℹ abbreviated name: ¹​sector_classification_direct_loantaker

Calculate market-share targets for production at the portfolio
level.

# portfolio level targets
scenario <- scenario_demo_2020
regions <- region_isos_demo

matched %>%
  target_market_share(
    abcd = abcd,
    scenario = scenario,
    region_isos = regions
  )
#> # A tibble: 1,076 × 10
#>    sector     technology  year region scenario_source metric     production technology_share scope  percentage_of_initial_production_by_scope
#>    <chr>      <chr>      <int> <chr>  <chr>           <chr>           <dbl>            <dbl> <chr>                                      <dbl>
#>  1 automotive electric    2020 global demo_2020       projected     145649.            0.165 sector                                  0       
#>  2 automotive electric    2020 global demo_2020       target_cps    145649.            0.165 sector                                  0       
#>  3 automotive electric    2020 global demo_2020       target_sds    145649.            0.165 sector                                  0       
#>  4 automotive electric    2020 global demo_2020       target_sps    145649.            0.165 sector                                  0       
#>  5 automotive electric    2021 global demo_2020       projected     147480.            0.165 sector                                  0.000739
#>  6 automotive electric    2021 global demo_2020       target_cps    146915.            0.165 sector                                  0.000511
#>  7 automotive electric    2021 global demo_2020       target_sds    153332.            0.167 sector                                  0.00310 
#>  8 automotive electric    2021 global demo_2020       target_sps    147258.            0.165 sector                                  0.000649
#>  9 automotive electric    2022 global demo_2020       projected     149310.            0.165 sector                                  0.00148 
#> 10 automotive electric    2022 global demo_2020       target_cps    148155.            0.164 sector                                  0.00101 
#> # ℹ 1,066 more rows

Calculate market-share targets for production at the company
level.

matched %>%
  target_market_share(
    abcd = abcd,
    scenario = scenario,
    region_isos = regions,
    by_company = TRUE,
    weight_production = FALSE
  )
#> # A tibble: 14,505 × 11
#>    sector     technology  year region scenario_source name_abcd                         metric     production technology_share scope  percentage_of_initial_production_by_scope
#>    <chr>      <chr>      <int> <chr>  <chr>           <chr>                             <chr>           <dbl>            <dbl> <chr>                                      <dbl>
#>  1 automotive electric    2020 global demo_2020       Bernardi, Bernardi e Bernardi SPA projected     324592.           0.0759 sector                                         0
#>  2 automotive electric    2020 global demo_2020       Bernardi, Bernardi e Bernardi SPA target_cps    324592.           0.0759 sector                                         0
#>  3 automotive electric    2020 global demo_2020       Bernardi, Bernardi e Bernardi SPA target_sds    324592.           0.0759 sector                                         0
#>  4 automotive electric    2020 global demo_2020       Bernardi, Bernardi e Bernardi SPA target_sps    324592.           0.0759 sector                                         0
#>  5 automotive electric    2020 global demo_2020       Christiansen PLC                  projected     512438.           0.130  sector                                         0
#>  6 automotive electric    2020 global demo_2020       Christiansen PLC                  target_cps    512438.           0.130  sector                                         0
#>  7 automotive electric    2020 global demo_2020       Christiansen PLC                  target_sds    512438.           0.130  sector                                         0
#>  8 automotive electric    2020 global demo_2020       Christiansen PLC                  target_sps    512438.           0.130  sector                                         0
#>  9 automotive electric    2020 global demo_2020       Donati, Donati e Donati s.r.l.    projected     277214.           1      sector                                         0
#> 10 automotive electric    2020 global demo_2020       Donati, Donati e Donati s.r.l.    target_cps    277214.           1      sector                                         0
#> # ℹ 14,495 more rows
…
Load the package.

library(pacta.loanbook)

Match the loanbook to asset level data.

loanbook <- loanbook_demo
abcd <- abcd_demo

matched <- match_name(loanbook = loanbook, abcd = abcd) %>%
  # WARNING: Remember to validate the output of match_name() before prioritize()
  prioritize()

matched
#> # A tibble: 177 × 22
#>    id_loan id_direct_loantaker name_direct_loantaker              id_ultimate_parent name_ultimate_parent             loan_size_outstanding loan_size_outstanding_currency loan_size_credit_limit loan_size_credit_limit_currency sector_classification_system sector_classification_direc…¹ lei_direct_loantaker isin_direct_loantaker id_2dii level sector sector_abcd name  name_abcd score source borderline
#>    <chr>   <chr>               <chr>                              <chr>              <chr>                                            <dbl> <chr>                                           <dbl> <chr>                           <chr>                        <chr>                         <chr>                <chr>                 <chr>   <chr> <chr>  <chr>       <chr> <chr>     <dbl> <chr>  <lgl>     
#>  1 L6      C304                Kassulke-Kassulke                  UP83               Farrell, Farrell and Farrell                    185721 EUR                                          18570711 EUR                             NACE                         D35.11                        108200TUBGG1DR0QR635 NA                    DL129   dire… power  power       Kass… Kassulke…     1 loanb… FALSE     
#>  2 L13     C297                Ladeck                             UP69               Kuhlman-Kuhlman                                 200569 EUR                                          18718839 EUR                             NACE                         D35.11                        948400P8YHB5DZHF3869 NA                    DL144   dire… power  power       Lade… Ladeck        1 loanb… FALSE     
#>  3 L20     C287                Weinhold                           UP35               Heinz                                           308217 EUR                                          19792767 EUR                             NACE                         D35.11                        NA                   NA                    DL270   dire… power  power       Wein… Weinhold      1 loanb… FALSE     
#>  4 L21     C286                Gallo Group                        UP63               Giordano Group                                  226553 EUR                                          18978063 EUR                             NACE                         D35.11                        961100AOJ8SCT439AL00 NA                    DL86    dire… power  power       Gall… Gallo Gr…     1 loanb… FALSE     
#>  5 L22     C285                Austermuhle GmbH                   UP187              Hickle-Hickle                                   196857 EUR                                          18681807 EUR                             NACE                         D35.11                        NA                   NA                    DL5     dire… power  power       Aust… Austermu…     1 loanb… FALSE     
#>  6 L24     C282                Ferraro-Ferraro Group              UP209              NA                                              309145 EUR                                          19802025 EUR                             NACE                         D35.11                        NA                   NA                    DL80    dire… power  power       Ferr… Ferraro-…     1 loanb… FALSE     
#>  7 L25     C281                Lockman, Lockman and Lockman       UP296              Butte                                           266457 EUR                                          19376157 EUR                             NACE                         D35.11                        6700006IJUUQG37Y4004 NA                    DL150   dire… power  power       Lock… Lockman,…     1 loanb… FALSE     
#>  8 L26     C280                Ankunding, Ankunding and Ankunding UP67               De luca, De luca e De luca Group                199641 EUR                                                 0 EUR                             NACE                         D35.11                        NA                   NA                    DL3     dire… power  power       Anku… Ankundin…     1 loanb… FALSE     
#>  9 L27     C278                Donati-Donati Group                UP45               Christoph GmbH                                  197785 EUR                                                 0 EUR                             NACE                         D35.11                        463600EXRQBFGLX57N94 NA                    DL65    dire… power  power       Dona… Donati-D…     1 loanb… FALSE     
#> 10 L28     C276                Ferraro, Ferraro e Ferraro SPA     UP195              Franke Franke AG & Co. KG                       315641 EUR                                          -5000000 EUR                             NACE                         D35.11                        NA                   NA                    DL79    dire… power  power       Ferr… Ferraro,…     1 loanb… FALSE     
#> # ℹ 167 more rows
#> # ℹ abbreviated name: ¹​sector_classification_direct_loantaker

Calculate SDA targets for CO2 emissions intensities at
the portfolio level:

co2_intensity <- co2_intensity_scenario_demo
regions <- region_isos_demo

matched %>%
  target_sda(
    abcd = abcd,
    co2_intensity_scenario = co2_intensity,
    region_isos = regions
  )
#> Warning: Removing rows in abcd where `emission_factor` is NA
#> # A tibble: 220 × 6
#>    sector  year region             scenario_source emission_factor_metric emission_factor_value
#>    <chr>  <dbl> <chr>              <chr>           <chr>                                  <dbl>
#>  1 cement  2020 advanced economies demo_2020       projected                             0.0230
#>  2 cement  2020 developing asia    demo_2020       projected                             0.0595
#>  3 cement  2020 global             demo_2020       projected                             0.664 
#>  4 cement  2021 advanced economies demo_2020       projected                             0.0232
#>  5 cement  2021 developing asia    demo_2020       projected                             0.0594
#>  6 cement  2021 global             demo_2020       projected                             0.665 
#>  7 cement  2022 advanced economies demo_2020       projected                             0.0233
#>  8 cement  2022 developing asia    demo_2020       projected                             0.0592
#>  9 cement  2022 global             demo_2020       projected                             0.666 
#> 10 cement  2023 advanced economies demo_2020       projected                             0.0235
#> # ℹ 210 more rows
Calculate SDA targets for CO2 emissions intensities at
the company level:

co2_intensity <- co2_intensity_scenario_demo
regions <- region_isos_demo

matched %>%
  target_sda(
    abcd = abcd,
    co2_intensity_scenario = co2_intensity,
    region_isos = regions,
    by_company = TRUE
  )
#> Warning: Removing rows in abcd where `emission_factor` is NA
#> # A tibble: 966 × 7
#>    sector  year region             scenario_source name_abcd                          emission_factor_metric emission_factor_value
#>    <chr>  <dbl> <chr>              <chr>           <chr>                              <chr>                                  <dbl>
#>  1 cement  2020 advanced economies demo_2020       Milani, Milani e Milani SPA        projected                              0.714
#>  2 cement  2020 developing asia    demo_2020       Heidrich GmbH                      projected                              0.675
#>  3 cement  2020 developing asia    demo_2020       Hovel Hovel GmbH & Co. KGaA        projected                              0.622
#>  4 cement  2020 global             demo_2020       Battaglia-Battaglia Group          projected                              0.626
#>  5 cement  2020 global             demo_2020       Bergstrom, Bergstrom and Bergstrom projected                              0.607
#>  6 cement  2020 global             demo_2020       Carsten GmbH & Co. KG              projected                              0.625
#>  7 cement  2020 global             demo_2020       Crist-Crist                        projected                              0.655
#>  8 cement  2020 global             demo_2020       Durgan-Durgan                      projected                              0.702
#>  9 cement  2020 global             demo_2020       Eberhardt Eberhardt GmbH           projected                              0.685
#> 10 cement  2020 global             demo_2020       Geissler Geissler AG & Co. KGaA    projected                              0.637
#> # ℹ 956 more rows
…
