Interpretation of Results • pacta.loanbook
…
For example, the output table could be filtered to view the projected
coal power production values for your portfolio with:

dplyr::filter(
  market_share,
  metric == "projected",
  technology == "coalcap"
)
#> # A tibble: 21 × 10
#>    sector technology  year region scenario_source metric    production technology_share scope      percentage_of_initial_production_by_scope
#>    <chr>  <chr>      <int> <chr>  <chr>           <chr>          <dbl>            <dbl> <chr>                                          <dbl>
#>  1 power  coalcap     2020 global demo_2020       projected     21766.            0.132 technology                                   0      
#>  2 power  coalcap     2021 global demo_2020       projected     21957.            0.132 technology                                   0.00878
#>  3 power  coalcap     2022 global demo_2020       projected     22148.            0.132 technology                                   0.0176 
#>  4 power  coalcap     2023 global demo_2020       projected     22340.            0.129 technology                                   0.0263 
#>  5 power  coalcap     2024 global demo_2020       projected     22531.            0.129 technology                                   0.0351 
#>  6 power  coalcap     2025 global demo_2020       projected     20104.            0.124 technology                                  -0.0764 
#>  7 power  coalcap     2026 global demo_2020       projected     20266.            0.125 technology                                  -0.0689 
#>  8 power  coalcap     2027 global demo_2020       projected     20427.            0.126 technology                                  -0.0615 
#>  9 power  coalcap     2028 global demo_2020       projected     20589.            0.126 technology                                  -0.0541 
#> 10 power  coalcap     2029 global demo_2020       projected     20751.            0.128 technology                                  -0.0466 
#> # ℹ 11 more rows
…
