Running the Analysis • pacta.loanbook
…
Typically, these data files are stored in XLS files on your computer.
As an example, they could be imported as in the code below using the
readxl package, however, if you use custom data that does
not strictly follow the format as defined in the previous section, you may
need to adjust the import code and/or do some data manipulation in R
after importing.

loanbook <- readxl::read_excel(path = file.path(tempdir(), "loanbook.xlsx"))

loanbook
#> # A tibble: 283 × 13
#>    id_loan id_direct_loantaker name_direct_loantaker       id_ultimate_parent name_ultimate_parent                   loan_size_outstanding loan_size_outstanding_currency loan_size_credit_limit loan_size_credit_limit_currency sector_classification_system sector_classification_direct_loantaker lei_direct_loantaker isin_direct_loantaker
#>    <chr>   <chr>               <chr>                       <chr>              <chr>                                                  <dbl> <chr>                                           <dbl> <chr>                           <chr>                        <chr>                                  <chr>                <lgl>                
#>  1 L1      C294                Vitale Group                UP15               Scholz KGaA                                           225625 EUR                                          18968805 EUR                             NACE                         D35.11                                 NA                   NA                   
#>  2 L2      C293                Moen-Moen                   UP84               NA                                                    301721 EUR                                          19727961 EUR                             NACE                         D35.11                                 NA                   NA                   
#>  3 L3      C292                Rowe-Rowe                   UP288              Harvey, Harvey and Harvey                             410297 EUR                                          20811147 EUR                             NACE                         D35.11                                 801600ATB1D513IUFZ77 NA                   
#>  4 L4      C299                Fadel-Fadel                 UP54               NA                                                    233049 EUR                                          19042869 EUR                             NACE                         D35.11                                 NA                   NA                   
#>  5 L5      C305                Ring AG & Co. KGaA          UP104              Conti, Conti e Conti SPA                              406585 EUR                                          20774115 EUR                             NACE                         D35.11                                 NA                   NA                   
#>  6 L6      C304                Kassulke-Kassulke           UP83               Farrell, Farrell and Farrell                          185721 EUR                                          18570711 EUR                             NACE                         D35.11                                 108200TUBGG1DR0QR635 NA                   
#>  7 L7      C227                Morissette Group            UP134              Weller AG                                             184793 EUR                                          18561453 EUR                             NACE                         D35.11                                 NA                   NA                   
#>  8 L8      C303                Barone s.r.l.               UP163              Williamsonn PLC                                       291513 EUR                                          19626123 EUR                             NACE                         D35.11                                 NA                   NA                   
#>  9 L9      C301                Werner Werner AG & Co. KGaA UP138              Leone-Leone s.r.l.                                    407513 EUR                                          20783373 EUR                             NACE                         D35.11                                 NA                   NA                   
#> 10 L10     C302                De rosa s.r.l.              UP32               Benedetti, Benedetti e Benedetti Group                186649 EUR                                          18579969 EUR                             NACE                         D35.11                                 NA                   NA                   
#> # ℹ 273 more rows

abcd <- readxl::read_excel(path = file.path(tempdir(), "abcd.xlsx"))

abcd
#> # A tibble: 4,972 × 12
#>    company_id name_company                          lei                  sector technology          production_unit  year production emission_factor plant_location is_ultimate_owner emission_factor_unit             
#>    <chr>      <chr>                                 <chr>                <chr>  <chr>               <chr>           <dbl>      <dbl>           <dbl> <chr>          <lgl>             <chr>                            
#>  1 175        Giordano, Giordano e Giordano e figli 18500033XH6RG332SX89 power  hydrocap            MW               2020    121032.          NA     MY             TRUE              tonnes of CO2 per per hour per MW
#>  2 175        Giordano, Giordano e Giordano e figli 18500033XH6RG332SX89 power  hydrocap            MW               2021    119274.          NA     MY             TRUE              tonnes of CO2 per per hour per MW
#>  3 175        Giordano, Giordano e Giordano e figli 18500033XH6RG332SX89 power  hydrocap            MW               2022    117515.          NA     MY             TRUE              tonnes of CO2 per per hour per MW
#>  4 175        Giordano, Giordano e Giordano e figli 18500033XH6RG332SX89 power  hydrocap            MW               2023    115757.          NA     MY             TRUE              tonnes of CO2 per per hour per MW
#>  5 175        Giordano, Giordano e Giordano e figli 18500033XH6RG332SX89 power  hydrocap            MW               2024    113999.          NA     MY             TRUE              tonnes of CO2 per per hour per MW
#>  6 175        Giordano, Giordano e Giordano e figli 18500033XH6RG332SX89 power  hydrocap            MW               2025    112240.          NA     MY             TRUE              tonnes of CO2 per per hour per MW
#>  7 526        Vitali, Vitali e Vitali s.r.l.        887100CAVZ6Y3KYT3Q90 cement integrated facility tonnes per year  2020   6327858.           0.723 CI             TRUE              tonnes of CO2 per tonne of cement
#>  8 526        Vitali, Vitali e Vitali s.r.l.        887100CAVZ6Y3KYT3Q90 cement integrated facility tonnes per year  2021   6569983.           0.735 CI             TRUE              tonnes of CO2 per tonne of cement
#>  9 526        Vitali, Vitali e Vitali s.r.l.        887100CAVZ6Y3KYT3Q90 cement integrated facility tonnes per year  2022   6812108.           0.746 CI             TRUE              tonnes of CO2 per tonne of cement
#> 10 526        Vitali, Vitali e Vitali s.r.l.        887100CAVZ6Y3KYT3Q90 cement integrated facility tonnes per year  2023   7054232.           0.758 CI             TRUE              tonnes of CO2 per tonne of cement
#> # ℹ 4,962 more rows
…
Remove corporate suffixes when necessary

Spell out numbers to increase their importance

The similarity is then scored between the internally-transformed
names of the loanbook against the names in the abcd. For more
information on the scoring algorithm used, see
stringdist::stringsim().

The basic usage of match_name() is as follows:

matched <- match_name(loanbook, abcd)

matched
#> # A tibble: 326 × 22
#>    id_loan id_direct_loantaker name_direct_loantaker       id_ultimate_parent name_ultimate_parent         loan_size_outstanding loan_size_outstanding_currency loan_size_credit_limit loan_size_credit_limit_currency sector_classification_system sector_classification_direct_loantaker lei_direct_loantaker isin_direct_loantaker id_2dii level   sector sector_abcd name  name_abcd score source borderline
#>    <chr>   <chr>               <chr>                       <chr>              <chr>                                        <dbl> <chr>                                           <dbl> <chr>                           <chr>                        <chr>                                  <chr>                <lgl>                 <chr>   <chr>   <chr>  <chr>       <chr> <chr>     <dbl> <chr>  <lgl>     
#>  1 L1      C294                Vitale Group                UP15               Scholz KGaA                                 225625 EUR                                          18968805 EUR                             NACE                         D35.11                                 NA                   NA                    UP190   ultima… power  power       Scho… Scholz K… 1     loanb… FALSE     
#>  2 L3      C292                Rowe-Rowe                   UP288              Harvey, Harvey and Harvey                   410297 EUR                                          20811147 EUR                             NACE                         D35.11                                 801600ATB1D513IUFZ77 NA                    UP101   ultima… power  power       Harv… Harvey, … 1     loanb… FALSE     
#>  3 L5      C305                Ring AG & Co. KGaA          UP104              Conti, Conti e Conti SPA                    406585 EUR                                          20774115 EUR                             NACE                         D35.11                                 NA                   NA                    UP39    ultima… power  power       Cont… Conti, C… 1     loanb… FALSE     
#>  4 L6      C304                Kassulke-Kassulke           UP83               Farrell, Farrell and Farrell                185721 EUR                                          18570711 EUR                             NACE                         D35.11                                 108200TUBGG1DR0QR635 NA                    DL129   direct… power  power       Kass… Kassulke… 1     loanb… FALSE     
#>  5 L6      C304                Kassulke-Kassulke           UP83               Farrell, Farrell and Farrell                185721 EUR                                          18570711 EUR                             NACE                         D35.11                                 108200TUBGG1DR0QR635 NA                    UP63    ultima… power  power       Farr… Farrell,… 1     loanb… FALSE     
#>  6 L7      C227                Morissette Group            UP134              Weller AG                                   184793 EUR                                          18561453 EUR                             NACE                         D35.11                                 NA                   NA                    DL179   direct… power  power       Mori… Moretti … 0.911 loanb… FALSE     
#>  7 L7      C227                Morissette Group            UP134              Weller AG                                   184793 EUR                                          18561453 EUR                             NACE                         D35.11                                 NA                   NA                    UP224   ultima… power  power       Well… Weller AG 1     loanb… FALSE     
#>  8 L8      C303                Barone s.r.l.               UP163              Williamsonn PLC                             291513 EUR                                          19626123 EUR                             NACE                         D35.11                                 NA                   NA                    UP228   ultima… power  power       Will… Williams… 0.987 loanb… FALSE     
#>  9 L9      C301                Werner Werner AG & Co. KGaA UP138              Leone-Leone s.r.l.                          407513 EUR                                          20783373 EUR                             NACE                         D35.11                                 NA                   NA                    DL274   direct… power  power       Wern… Wende We… 0.844 loanb… FALSE     
#> 10 L9      C301                Werner Werner AG & Co. KGaA UP138              Leone-Leone s.r.l.                          407513 EUR                                          20783373 EUR                             NACE                         D35.11                                 NA                   NA                    UP132   ultima… power  power       Leon… Leone-Le… 1     loanb… FALSE     
#> # ℹ 316 more rows
…
some_interesting_columns <- c("id_2dii", "level", "score")

prioritized_matches <-
  valid_matches %>%
  prioritize()

prioritized_matches %>% select(all_of(some_interesting_columns))
#> # A tibble: 177 × 3
#>    id_2dii level            score
#>    <chr>   <chr>            <dbl>
#>  1 DL129   direct_loantaker     1
#>  2 DL144   direct_loantaker     1
#>  3 DL270   direct_loantaker     1
#>  4 DL86    direct_loantaker     1
#>  5 DL5     direct_loantaker     1
#>  6 DL80    direct_loantaker     1
#>  7 DL150   direct_loantaker     1
#>  8 DL3     direct_loantaker     1
#>  9 DL65    direct_loantaker     1
#> 10 DL79    direct_loantaker     1
#> # ℹ 167 more rows
By default, highest priority refers to the most granular match
(direct_loantaker). The default priority is set internally
via prioritize_level().

prioritize_level(valid_matches)
#> [1] "direct_loantaker" "ultimate_parent"

You may use a different priority. One way to do that is to pass a
function to priority. For example, use rev()
to reverse the default priority.

valid_matches %>%
  prioritize(priority = rev) %>%
  select(all_of(some_interesting_columns))
#> # A tibble: 177 × 3
#>    id_2dii level           score
#>    <chr>   <chr>           <dbl>
#>  1 UP190   ultimate_parent     1
#>  2 UP101   ultimate_parent     1
#>  3 UP39    ultimate_parent     1
#>  4 UP63    ultimate_parent     1
#>  5 UP224   ultimate_parent     1
#>  6 UP132   ultimate_parent     1
#>  7 UP12    ultimate_parent     1
#>  8 UP20    ultimate_parent     1
#>  9 UP134   ultimate_parent     1
#> 10 UP127   ultimate_parent     1
#> # ℹ 167 more rows
…
# Use these datasets to practice but eventually you should use your own data.
scenario <- scenario_demo_2020
regions <- region_isos_demo

market_share_targets_portfolio <-
  target_market_share(
    data = prioritized_matches,
    abcd = abcd,
    scenario = scenario,
    region_isos = regions
  )

market_share_targets_portfolio
#> # A tibble: 1,076 × 10
#>    sector     technology  year region scenario_source metric     production technology_share scope  percentage_of_initial_production_by_scope
#>    <chr>      <chr>      <dbl> <chr>  <chr>           <chr>           <dbl>            <dbl> <chr>                                      <dbl>
#>  1 automotive electric    2020 global demo_2020       projected     145649.            0.165 sector                                  0       
#>  2 automotive electric    2020 global demo_2020       target_cps    145649.            0.165 sector                                  0       
#>  3 automotive electric    2020 global demo_2020       target_sds    145649.            0.165 sector                                  0       
#>  4 automotive electric    2020 global demo_2020       target_sps    145649.            0.165 sector                                  0       
#>  5 automotive electric    2021 global demo_2020       projected     147480.            0.165 sector                                  0.000739
#>  6 automotive electric    2021 global demo_2020       target_cps    146915.            0.165 sector                                  0.000511
#>  7 automotive electric    2021 global demo_2020       target_sds    153332.            0.167 sector                                  0.00310 
#>  8 automotive electric    2021 global demo_2020       target_sps    147258.            0.165 sector                                  0.000649
#>  9 automotive electric    2022 global demo_2020       projected     149310.            0.165 sector                                  0.00148 
#> 10 automotive electric    2022 global demo_2020       target_cps    148155.            0.164 sector                                  0.00101 
#> # ℹ 1,066 more rows

Or at the company level:

market_share_targets_company <-
  target_market_share(
    data = prioritized_matches,
    abcd = abcd,
    scenario = scenario,
    region_isos = regions,
    by_company = TRUE, # Output results at company-level
    weight_production = FALSE
  )

market_share_targets_company
#> # A tibble: 14,505 × 11
#>    sector     technology  year region scenario_source name_abcd                         metric     production technology_share scope  percentage_of_initial_production_by_scope
#>    <chr>      <chr>      <dbl> <chr>  <chr>           <chr>                             <chr>           <dbl>            <dbl> <chr>                                      <dbl>
#>  1 automotive electric    2020 global demo_2020       Bernardi, Bernardi e Bernardi SPA projected     324592.           0.0759 sector                                         0
#>  2 automotive electric    2020 global demo_2020       Bernardi, Bernardi e Bernardi SPA target_cps    324592.           0.0759 sector                                         0
#>  3 automotive electric    2020 global demo_2020       Bernardi, Bernardi e Bernardi SPA target_sds    324592.           0.0759 sector                                         0
#>  4 automotive electric    2020 global demo_2020       Bernardi, Bernardi e Bernardi SPA target_sps    324592.           0.0759 sector                                         0
#>  5 automotive electric    2020 global demo_2020       Christiansen PLC                  projected     512438.           0.130  sector                                         0
#>  6 automotive electric    2020 global demo_2020       Christiansen PLC                  target_cps    512438.           0.130  sector                                         0
#>  7 automotive electric    2020 global demo_2020       Christiansen PLC                  target_sds    512438.           0.130  sector                                         0
#>  8 automotive electric    2020 global demo_2020       Christiansen PLC                  target_sps    512438.           0.130  sector                                         0
#>  9 automotive electric    2020 global demo_2020       Donati, Donati e Donati s.r.l.    projected     277214.           1      sector                                         0
#> 10 automotive electric    2020 global demo_2020       Donati, Donati e Donati s.r.l.    target_cps    277214.           1      sector                                         0
#> # ℹ 14,495 more rows
…
