Running the Analysis • pacta.loanbook
…
Typically, these data files are stored in XLS files on your computer.
As an example, they could be imported as in the code below using the
readxl package, however, if you use custom data that does
not strictly follow the format as defined in the previous section, you may
need to adjust the import code and/or do some data manipulation in R
after importing.

loanbook <- readxl::read_excel(path = file.path(tempdir(), "loanbook.xlsx"))

loanbook
#> # A tibble: 283 × 13
#>    id_loan id_direct_loantaker name_direct_loantaker       id_ultimate_parent
#>    <chr>   <chr>               <chr>                       <chr>             
#>  1 L1      C294                Vitale Group                UP15              
#>  2 L2      C293                Moen-Moen                   UP84              
#>  3 L3      C292                Rowe-Rowe                   UP288             
#>  4 L4      C299                Fadel-Fadel                 UP54              
#>  5 L5      C305                Ring AG & Co. KGaA          UP104             
#>  6 L6      C304                Kassulke-Kassulke           UP83              
#>  7 L7      C227                Morissette Group            UP134             
#>  8 L8      C303                Barone s.r.l.               UP163             
#>  9 L9      C301                Werner Werner AG & Co. KGaA UP138             
#> 10 L10     C302                De rosa s.r.l.              UP32              
#> # ℹ 273 more rows
#> # ℹ 9 more variables: name_ultimate_parent <chr>, loan_size_outstanding <dbl>,
#> #   loan_size_outstanding_currency <chr>, loan_size_credit_limit <dbl>,
#> #   loan_size_credit_limit_currency <chr>, sector_classification_system <chr>,
#> #   sector_classification_direct_loantaker <chr>, lei_direct_loantaker <chr>,
#> #   isin_direct_loantaker <lgl>

abcd <- readxl::read_excel(path = file.path(tempdir(), "abcd.xlsx"))

abcd
#> # A tibble: 4,972 × 12
#>    company_id name_company         lei   sector technology production_unit  year
#>    <chr>      <chr>                <chr> <chr>  <chr>      <chr>           <dbl>
#>  1 175        Giordano, Giordano … 1850… power  hydrocap   MW               2020
#>  2 175        Giordano, Giordano … 1850… power  hydrocap   MW               2021
#>  3 175        Giordano, Giordano … 1850… power  hydrocap   MW               2022
#>  4 175        Giordano, Giordano … 1850… power  hydrocap   MW               2023
#>  5 175        Giordano, Giordano … 1850… power  hydrocap   MW               2024
#>  6 175        Giordano, Giordano … 1850… power  hydrocap   MW               2025
#>  7 526        Vitali, Vitali e Vi… 8871… cement integrate… tonnes per year  2020
#>  8 526        Vitali, Vitali e Vi… 8871… cement integrate… tonnes per year  2021
#>  9 526        Vitali, Vitali e Vi… 8871… cement integrate… tonnes per year  2022
#> 10 526        Vitali, Vitali e Vi… 8871… cement integrate… tonnes per year  2023
#> # ℹ 4,962 more rows
#> # ℹ 5 more variables: production <dbl>, emission_factor <dbl>,
#> #   plant_location <chr>, is_ultimate_owner <lgl>, emission_factor_unit <chr>
…
Abbreviate certain names to reduce their importance in the
matching

Remove corporate suffixes when necessary

Spell out numbers to increase their importance

The similarity is then scored between the internally-transformed
names of the loanbook against the names in the abcd. For more
information on the scoring algorithm used, see
stringdist::stringsim().

match_name(loanbook, abcd)
#> # A tibble: 326 × 22
#>    id_loan id_direct_loantaker name_direct_loantaker       id_ultimate_parent
#>    <chr>   <chr>               <chr>                       <chr>             
#>  1 L1      C294                Vitale Group                UP15              
#>  2 L3      C292                Rowe-Rowe                   UP288             
#>  3 L5      C305                Ring AG & Co. KGaA          UP104             
#>  4 L6      C304                Kassulke-Kassulke           UP83              
#>  5 L6      C304                Kassulke-Kassulke           UP83              
#>  6 L7      C227                Morissette Group            UP134             
#>  7 L7      C227                Morissette Group            UP134             
#>  8 L8      C303                Barone s.r.l.               UP163             
#>  9 L9      C301                Werner Werner AG & Co. KGaA UP138             
#> 10 L9      C301                Werner Werner AG & Co. KGaA UP138             
#> # ℹ 316 more rows
#> # ℹ 18 more variables: name_ultimate_parent <chr>, loan_size_outstanding <dbl>,
#> #   loan_size_outstanding_currency <chr>, loan_size_credit_limit <dbl>,
#> #   loan_size_credit_limit_currency <chr>, sector_classification_system <chr>,
#> #   sector_classification_direct_loantaker <chr>, lei_direct_loantaker <chr>,
#> #   isin_direct_loantaker <lgl>, id_2dii <chr>, level <chr>, sector <chr>,
#> #   sector_abcd <chr>, name <chr>, name_abcd <chr>, score <dbl>, …
…
some_interesting_columns <- c("id_2dii", "level", "score")

prioritized_matches <-
  valid_matches %>%
  prioritize()

prioritized_matches %>% select(all_of(some_interesting_columns))
#> # A tibble: 175 × 3
#>    id_2dii level            score
#>    <chr>   <chr>            <dbl>
#>  1 DL129   direct_loantaker     1
#>  2 DL144   direct_loantaker     1
#>  3 DL270   direct_loantaker     1
#>  4 DL86    direct_loantaker     1
#>  5 DL5     direct_loantaker     1
#>  6 DL80    direct_loantaker     1
#>  7 DL150   direct_loantaker     1
#>  8 DL3     direct_loantaker     1
#>  9 DL65    direct_loantaker     1
#> 10 DL79    direct_loantaker     1
#> # ℹ 165 more rows
By default, highest priority refers to the most granular match
(direct_loantaker). The default priority is set internally
via prioritize_level().

prioritize_level(valid_matches)
#> [1] "direct_loantaker" "ultimate_parent"

You may use a different priority. One way to do that is to pass a
function to priority. For example, use rev()
to reverse the default priority.

valid_matches %>%
  prioritize(priority = rev) %>%
  select(all_of(some_interesting_columns))
#> # A tibble: 175 × 3
#>    id_2dii level           score
#>    <chr>   <chr>           <dbl>
#>  1 UP190   ultimate_parent     1
#>  2 UP101   ultimate_parent     1
#>  3 UP39    ultimate_parent     1
#>  4 UP63    ultimate_parent     1
#>  5 UP224   ultimate_parent     1
#>  6 UP132   ultimate_parent     1
#>  7 UP12    ultimate_parent     1
#>  8 UP20    ultimate_parent     1
#>  9 UP134   ultimate_parent     1
#> 10 UP127   ultimate_parent     1
#> # ℹ 165 more rows
…
# Use these datasets to practice but eventually you should use your own data.
scenario <- r2dii.data::scenario_demo_2020
regions <- r2dii.data::region_isos_demo

market_share_targets_portfolio <-
  target_market_share(
    data = prioritized_matches,
    abcd = abcd,
    scenario = scenario,
    region_isos = regions
  )

market_share_targets_portfolio
#> # A tibble: 1,076 × 10
#>    sector     technology  year region scenario_source metric     production
#>    <chr>      <chr>      <dbl> <chr>  <chr>           <chr>           <dbl>
#>  1 automotive electric    2020 global demo_2020       projected     139052.
#>  2 automotive electric    2020 global demo_2020       target_cps    139052.
#>  3 automotive electric    2020 global demo_2020       target_sds    139052.
#>  4 automotive electric    2020 global demo_2020       target_sps    139052.
#>  5 automotive electric    2021 global demo_2020       projected     140395.
#>  6 automotive electric    2021 global demo_2020       target_cps    140195.
#>  7 automotive electric    2021 global demo_2020       target_sds    145990.
#>  8 automotive electric    2021 global demo_2020       target_sps    140505.
#>  9 automotive electric    2022 global demo_2020       projected     141737.
#> 10 automotive electric    2022 global demo_2020       target_cps    141314.
#> # ℹ 1,066 more rows
#> # ℹ 3 more variables: technology_share <dbl>, scope <chr>,
#> #   percentage_of_initial_production_by_scope <dbl>
…
market_share_targets_company <-
  target_market_share(
    data = prioritized_matches,
    abcd = abcd,
    scenario = scenario,
    region_isos = regions,
    by_company = TRUE # Output results at company-level
  )
#> Warning: You've supplied `by_company = TRUE` and `weight_production = TRUE`.
#> This will result in company-level results, weighted by the portfolio
#> loan size, which is rarely useful. Did you mean to set one of these
#> arguments to `FALSE`?

market_share_targets_company
#> # A tibble: 14,505 × 11
#>    sector    technology  year region scenario_source name_abcd metric production
#>    <chr>     <chr>      <dbl> <chr>  <chr>           <chr>     <chr>       <dbl>
#>  1 automoti… electric    2020 global demo_2020       Bernardi… proje…      6646.
#>  2 automoti… electric    2020 global demo_2020       Bernardi… targe…      6646.
#>  3 automoti… electric    2020 global demo_2020       Bernardi… targe…      6646.
#>  4 automoti… electric    2020 global demo_2020       Bernardi… targe…      6646.
#>  5 automoti… electric    2020 global demo_2020       Christia… proje…     11894.
#>  6 automoti… electric    2020 global demo_2020       Christia… targe…     11894.
#>  7 automoti… electric    2020 global demo_2020       Christia… targe…     11894.
#>  8 automoti… electric    2020 global demo_2020       Christia… targe…     11894.
#>  9 automoti… electric    2020 global demo_2020       Donati, … proje…      5818.
#> 10 automoti… electric    2020 global demo_2020       Donati, … targe…      5818.
#> # ℹ 14,495 more rows
#> # ℹ 3 more variables: technology_share <dbl>, scope <chr>,
#> #   percentage_of_initial_production_by_scope <dbl>
…
# Use this dataset to practice but eventually you should use your own data.
co2 <- r2dii.data::co2_intensity_scenario_demo

sda_targets <-
  target_sda(
    data = prioritized_matches,
    abcd = abcd,
    co2_intensity_scenario = co2,
    region_isos = regions
  ) %>% 
  filter(sector == "cement", year >= 2020)
#> Warning: Removing rows in abcd where `emission_factor` is NA

sda_targets
#> # A tibble: 110 × 6
#>    sector  year region             scenario_source emission_factor_metric
#>    <chr>  <dbl> <chr>              <chr>           <chr>                 
#>  1 cement  2020 advanced economies demo_2020       projected             
#>  2 cement  2020 developing asia    demo_2020       projected             
#>  3 cement  2020 global             demo_2020       projected             
#>  4 cement  2021 advanced economies demo_2020       projected             
#>  5 cement  2021 developing asia    demo_2020       projected             
#>  6 cement  2021 global             demo_2020       projected             
#>  7 cement  2022 advanced economies demo_2020       projected             
#>  8 cement  2022 developing asia    demo_2020       projected             
#>  9 cement  2022 global             demo_2020       projected             
#> 10 cement  2023 advanced economies demo_2020       projected             
#> # ℹ 100 more rows
#> # ℹ 1 more variable: emission_factor_value <dbl>
…
